%YAML 1.1
%TAG !u! tag:unity3d.com,2011:
--- !u!1 &8924823879211038967
GameObject:
  m_ObjectHideFlags: 0
  m_CorrespondingSourceObject: {fileID: 0}
  m_PrefabInstance: {fileID: 0}
  m_PrefabAsset: {fileID: 0}
  serializedVersion: 6
  m_Component:
  - component: {fileID: 1684213881690117198}
  - component: {fileID: -3300913852906827464}
  m_Layer: 0
  m_Name: GoogleMapAnchor
  m_TagString: Untagged
  m_Icon: {fileID: 0}
  m_NavMeshLayer: 0
  m_StaticEditorFlags: 0
  m_IsActive: 1
--- !u!4 &1684213881690117198
Transform:
  m_ObjectHideFlags: 0
  m_CorrespondingSourceObject: {fileID: 0}
  m_PrefabInstance: {fileID: 0}
  m_PrefabAsset: {fileID: 0}
  m_GameObject: {fileID: 8924823879211038967}
  m_LocalRotation: {x: 0, y: 0, z: 0, w: 1}
  m_LocalPosition: {x: 0, y: 0, z: 0}
  m_LocalScale: {x: 0.01, y: 0.01, z: 0.01}
  m_ConstrainProportionsScale: 1
  m_Children:
  - {fileID: 121401775499029398}
  m_Father: {fileID: 0}
  m_RootOrder: 0
  m_LocalEulerAnglesHint: {x: 0, y: 0, z: 0}
--- !u!114 &-3300913852906827464
MonoBehaviour:
  m_ObjectHideFlags: 0
  m_CorrespondingSourceObject: {fileID: 0}
  m_PrefabInstance: {fileID: 0}
  m_PrefabAsset: {fileID: 0}
  m_GameObject: {fileID: 8924823879211038967}
  m_Enabled: 1
  m_EditorHideFlags: 0
  m_Script: {fileID: 11500000, guid: 9d3db31bbb5403849881c1de3f2f5d59, type: 3}
  m_Name: 
  m_EditorClassIdentifier: 
  m_DestroyOnRemoval: 1
--- !u!1001 &1244217184133221382
PrefabInstance:
  m_ObjectHideFlags: 0
  serializedVersion: 2
  m_Modification:
    serializedVersion: 2
    m_TransformParent: {fileID: 1684213881690117198}
    m_Modifications:
    - target: {fileID: 1219093044944054160, guid: 221f590443d7599449771e6942dbb4ad,
        type: 3}
      propertyPath: m_RootOrder
      value: 0
      objectReference: {fileID: 0}
    - target: {fileID: 1219093044944054160, guid: 221f590443d7599449771e6942dbb4ad,
        type: 3}
      propertyPath: m_LocalScale.x
      value: 1
      objectReference: {fileID: 0}
    - target: {fileID: 1219093044944054160, guid: 221f590443d7599449771e6942dbb4ad,
        type: 3}
      propertyPath: m_LocalScale.y
      value: 1
      objectReference: {fileID: 0}
    - target: {fileID: 1219093044944054160, guid: 221f590443d7599449771e6942dbb4ad,
        type: 3}
      propertyPath: m_LocalScale.z
      value: 1
      objectReference: {fileID: 0}
    - target: {fileID: 1219093044944054160, guid: 221f590443d7599449771e6942dbb4ad,
        type: 3}
      propertyPath: m_LocalPosition.x
      value: 0
      objectReference: {fileID: 0}
    - target: {fileID: 1219093044944054160, guid: 221f590443d7599449771e6942dbb4ad,
        type: 3}
      propertyPath: m_LocalPosition.y
      value: 0.1
      objectReference: {fileID: 0}
    - target: {fileID: 1219093044944054160, guid: 221f590443d7599449771e6942dbb4ad,
        type: 3}
      propertyPath: m_LocalPosition.z
      value: 0
      objectReference: {fileID: 0}
    - target: {fileID: 1219093044944054160, guid: 221f590443d7599449771e6942dbb4ad,
        type: 3}
      propertyPath: m_LocalRotation.w
      value: 1
      objectReference: {fileID: 0}
    - target: {fileID: 1219093044944054160, guid: 221f590443d7599449771e6942dbb4ad,
        type: 3}
      propertyPath: m_LocalRotation.x
      value: 0
      objectReference: {fileID: 0}
    - target: {fileID: 1219093044944054160, guid: 221f590443d7599449771e6942dbb4ad,
        type: 3}
      propertyPath: m_LocalRotation.y
      value: 0
      objectReference: {fileID: 0}
    - target: {fileID: 1219093044944054160, guid: 221f590443d7599449771e6942dbb4ad,
        type: 3}
      propertyPath: m_LocalRotation.z
      value: 0
      objectReference: {fileID: 0}
    - target: {fileID: 1219093044944054160, guid: 221f590443d7599449771e6942dbb4ad,
        type: 3}
      propertyPath: m_LocalEulerAnglesHint.x
      value: 0
      objectReference: {fileID: 0}
    - target: {fileID: 1219093044944054160, guid: 221f590443d7599449771e6942dbb4ad,
        type: 3}
      propertyPath: m_LocalEulerAnglesHint.y
      value: 0
      objectReference: {fileID: 0}
    - target: {fileID: 1219093044944054160, guid: 221f590443d7599449771e6942dbb4ad,
        type: 3}
      propertyPath: m_LocalEulerAnglesHint.z
      value: 0
      objectReference: {fileID: 0}
    - target: {fileID: 5317464442842761380, guid: 221f590443d7599449771e6942dbb4ad,
        type: 3}
      propertyPath: m_Name
      value: GoogleMapAR
      objectReference: {fileID: 0}
    m_RemovedComponents: []
    m_AddedGameObjects: []
  m_SourcePrefab: {fileID: 100100000, guid: 221f590443d7599449771e6942dbb4ad, type: 3}
--- !u!4 &121401775499029398 stripped
Transform:
  m_CorrespondingSourceObject: {fileID: 1219093044944054160, guid: 221f590443d7599449771e6942dbb4ad,
    type: 3}
  m_PrefabInstance: {fileID: 1244217184133221382}
  m_PrefabAsset: {fileID: 0}
