%YAML 1.1
%TAG !u! tag:unity3d.com,2011:
--- !u!1 &4348525722127839168
GameObject:
  m_ObjectHideFlags: 0
  m_CorrespondingSourceObject: {fileID: 0}
  m_PrefabInstance: {fileID: 0}
  m_PrefabAsset: {fileID: 0}
  serializedVersion: 6
  m_Component:
  - component: {fileID: 4348525722127839174}
  - component: {fileID: 4348525722127839172}
  m_Layer: 0
  m_Name: GoogleMap
  m_TagString: Untagged
  m_Icon: {fileID: 0}
  m_NavMeshLayer: 0
  m_StaticEditorFlags: 0
  m_IsActive: 1
--- !u!4 &4348525722127839174
Transform:
  m_ObjectHideFlags: 0
  m_CorrespondingSourceObject: {fileID: 0}
  m_PrefabInstance: {fileID: 0}
  m_PrefabAsset: {fileID: 0}
  m_GameObject: {fileID: 4348525722127839168}
  m_LocalRotation: {x: 0, y: 0, z: 0, w: 1}
  m_LocalPosition: {x: 0, y: 0, z: 0}
  m_LocalScale: {x: 1, y: 1, z: 1}
  m_ConstrainProportionsScale: 0
  m_Children: []
  m_Father: {fileID: 0}
  m_RootOrder: 4
  m_LocalEulerAnglesHint: {x: 0, y: 0, z: 0}
--- !u!114 &4348525722127839172
MonoBehaviour:
  m_ObjectHideFlags: 0
  m_CorrespondingSourceObject: {fileID: 0}
  m_PrefabInstance: {fileID: 0}
  m_PrefabAsset: {fileID: 0}
  m_GameObject: {fileID: 4348525722127839168}
  m_Enabled: 1
  m_EditorHideFlags: 0
  m_Script: {fileID: 11500000, guid: b54a7f7c7b1f23d48a0db6189bb22321, type: 3}
  m_Name: 
  m_EditorClassIdentifier: 
  rawImage: {fileID: 0}
  x_Input: {fileID: 0}
  y_Input: {fileID: 0}
  btn: {fileID: 0}
  LatLng:
    _Lat: 40.6892199
    _Lng: -74.044601
  mapsPrefab: {fileID: 4838492332747821230, guid: 1cd56a99b4a4700488adf5950b05e11d,
    type: 3}
